<svg width="14" height="18" viewBox="0 0 19 17" fill="none" xmlns="http://www.w3.org/2000/svg">
<path d="M17.932 7.01006L17.9616 7.01655H5.24771L9.24451 3.01095C9.44022 2.81539 9.54758 2.55047 9.54758 2.27242C9.54758 1.99437 9.44022 1.7313 9.24451 1.53528L8.62261 0.913066C8.42704 0.717505 8.16645 0.609375 7.88856 0.609375C7.61051 0.609375 7.34976 0.716733 7.1542 0.912294L0.302923 7.76296C0.106589 7.95929 -0.000768219 8.22081 4.1385e-06 8.49902C-0.000768219 8.77876 0.106589 9.04044 0.302923 9.23646L7.1542 16.0877C7.34976 16.2832 7.61035 16.3907 7.88856 16.3907C8.16645 16.3907 8.42704 16.283 8.62261 16.0877L9.24451 15.4655C9.44022 15.2703 9.54758 15.0095 9.54758 14.7315C9.54758 14.4536 9.44022 14.2066 9.24451 14.0112L5.20261 9.98318H17.9462C18.5188 9.98318 19 9.48964 19 8.91733V8.0373C19 7.46498 18.5046 7.01006 17.932 7.01006Z" fill="#FFFFFF"/>
</svg>
